{
	"Z1K1": "Z2",
	"Z2K1": {
		"Z1K1": "Z6",
		"Z6K1": "Z109"
	},
	"Z2K2": {
		"Z1K1": "Z8",
		"Z8K1": [
			"Z17",
			{
				"Z1K1": "Z17",
				"Z17K1": "Z9",
				"Z17K2": "Z109K1",
				"Z17K3": {
					"Z1K1": "Z12",
					"Z12K1": [
						"Z11",
						{
							"Z1K1": "Z11",
							"Z11K1": "Z1002",
							"Z11K2": "reference"
						}
					]
				}
			}
		],
		"Z8K2": "Z9",
		"Z8K3": [
			"Z20"
		],
		"Z8K4": [
			"Z14",
			"Z209"
		],
		"Z8K5": "Z109"
	},
	"Z2K3": {
		"Z1K1": "Z12",
		"Z12K1": [
			"Z11",
			{
				"Z1K1": "Z11",
				"Z11K1": "Z1002",
				"Z11K2": "Validate reference"
			}
		]
	}
}
