{
	"Z1K1": "Z2",
	"Z2K1": {
		"Z1K1": "Z6",
		"Z6K1": "Z21"
	},
	"Z2K2": {
		"Z1K1": "Z4",
		"Z4K1": "Z21",
		"Z4K2": [
			"Z3"
		],
		"Z4K3": "Z121"
	},
	"Z2K3": {
		"Z1K1": "Z12",
		"Z12K1": [
			"Z11",
			{
				"Z1K1": "Z11",
				"Z11K1": "Z1002",
				"Z11K2": "Unit"
			}
		]
	}
}
