{
	"Z1K1": "Z2",
	"Z2K1": {
		"Z1K1": "Z6",
		"Z6K1": "Z39"
	},
	"Z2K2": {
		"Z1K1": "Z4",
		"Z4K1": "Z39",
		"Z4K2": [
			"Z3",
			{
				"Z1K1": "Z3",
				"Z3K1": "Z6",
				"Z3K2": "Z39K1",
				"Z3K3": {
					"Z1K1": "Z12",
					"Z12K1": [
						"Z11",
						{
							"Z1K1": "Z11",
							"Z11K1": "Z1002",
							"Z11K2": "reference"
						}
					]
				}
			}
		],
		"Z4K3": "Z139"
	},
	"Z2K3": {
		"Z1K1": "Z12",
		"Z12K1": [
			"Z11",
			{
				"Z1K1": "Z11",
				"Z11K1": "Z1002",
				"Z11K2": "Key reference"
			}
		]
	}
}
