{
	"Z1K1": "Z2",
	"Z2K1": {
		"Z1K1": "Z6",
		"Z6K1": "Z40"
	},
	"Z2K2": {
		"Z1K1": "Z4",
		"Z4K1": "Z40",
		"Z4K2": [
			"Z3",
			{
				"Z1K1": "Z3",
				"Z3K1": "Z40",
				"Z3K2": "Z40K1",
				"Z3K3": {
					"Z1K1": "Z12",
					"Z12K1": [
						"Z11",
						{
							"Z1K1": "Z11",
							"Z11K1": "Z1002",
							"Z11K2": "identity"
						}
					]
				},
				"Z3K4": "Z41"
			}
		],
		"Z4K3": "Z140",
		"Z4K4": "Z844"
	},
	"Z2K3": {
		"Z1K1": "Z12",
		"Z12K1": [
			"Z11",
			{
				"Z1K1": "Z11",
				"Z11K1": "Z1002",
				"Z11K2": "Boolean"
			}
		]
	},
	"Z2K5": {
		"Z1K1": "Z12",
		"Z12K1": [
			"Z11",
			{
				"Z1K1": "Z11",
				"Z11K1": "Z1002",
				"Z11K2": "Either 'true' or 'false', and is one of the fundamental Z4/Types available in the Wikifunctions system."
			}
		]
	}
}
