{
	"Z1K1": "Z2",
	"Z2K1": {
		"Z1K1": "Z6",
		"Z6K1": "Z60"
	},
	"Z2K2": {
		"Z1K1": "Z4",
		"Z4K1": "Z60",
		"Z4K2": [
			"Z3",
			{
				"Z1K1": "Z3",
				"Z3K1": "Z6",
				"Z3K2": "Z60K1",
				"Z3K3": {
					"Z1K1": "Z12",
					"Z12K1": [
						"Z11",
						{
							"Z1K1": "Z11",
							"Z11K1": "Z1002",
							"Z11K2": "code"
						}
					]
				}
			},
			{
				"Z1K1": "Z3",
				"Z3K1": {
					"Z1K1": "Z7",
					"Z7K1": "Z881",
					"Z881K1": "Z6"
				},
				"Z3K2": "Z60K2",
				"Z3K3": {
					"Z1K1": "Z12",
					"Z12K1": [
						"Z11",
						{
							"Z1K1": "Z11",
							"Z11K1": "Z1002",
							"Z11K2": "code aliases"
						}
					]
				}
			}
		],
		"Z4K3": "Z160"
	},
	"Z2K3": {
		"Z1K1": "Z12",
		"Z12K1": [
			"Z11",
			{
				"Z1K1": "Z11",
				"Z11K1": "Z1002",
				"Z11K2": "Natural language"
			}
		]
	}
}
