{
	"Z1K1": "Z2",
	"Z2K1": {
		"Z1K1": "Z6",
		"Z6K1": "Z888"
	},
	"Z2K2": {
		"Z1K1": "Z8",
		"Z8K1": [
			"Z17",
			{
				"Z1K1": "Z17",
				"Z17K1": "Z86",
				"Z17K2": "Z888K1",
				"Z17K3": {
					"Z1K1": "Z12",
					"Z12K1": [
						"Z11",
						{
							"Z1K1": "Z11",
							"Z11K1": "Z1002",
							"Z11K2": "first"
						}
					]
				}
			},
			{
				"Z1K1": "Z17",
				"Z17K1": "Z86",
				"Z17K2": "Z888K2",
				"Z17K3": {
					"Z1K1": "Z12",
					"Z12K1": [
						"Z11",
						{
							"Z1K1": "Z11",
							"Z11K1": "Z1002",
							"Z11K2": "second"
						}
					]
				}
			}
		],
		"Z8K2": "Z40",
		"Z8K3": [
			"Z20",
			"Z8880",
			"Z8881",
			"Z8882"
		],
		"Z8K4": [
			"Z14",
			"Z988"
		],
		"Z8K5": "Z888"
	},
	"Z2K3": {
		"Z1K1": "Z12",
		"Z12K1": [
			"Z11",
			{
				"Z1K1": "Z11",
				"Z11K1": "Z1002",
				"Z11K2": "Code point equality"
			}
		]
	},
	"Z2K4": {
		"Z1K1": "Z32",
		"Z32K1": [
			"Z31",
			{
				"Z1K1": "Z31",
				"Z31K1": "Z1002",
				"Z31K2": [
					"Z6",
					"Equals",
					"Same"
				]
			}
		]
	}
}
